<?xml version="1.0" encoding="utf-8"?>
<COLLADA xmlns="http://www.collada.org/2005/11/COLLADASchema" version="1.4.1">
  <asset>
    <contributor>
      <author>Blender User</author>
      <authoring_tool>Blender 2.73.0 commit date:2015-01-20, commit time:18:16, hash:bbf09d9</authoring_tool>
    </contributor>
    <created>2015-03-14T12:28:53</created>
    <modified>2015-03-14T12:28:53</modified>
    <unit name="meter" meter="1"/>
    <up_axis>Z_UP</up_axis>
  </asset>
  <library_images/>
  <library_effects>
    <effect id="box_mat-effect">
      <profile_COMMON>
        <technique sid="common">
          <phong>
            <emission>
              <color sid="emission">0 0 0 1</color>
            </emission>
            <ambient>
              <color sid="ambient">0 0 0 1</color>
            </ambient>
            <diffuse>
              <color sid="diffuse">0.64 0.64 0.64 1</color>
            </diffuse>
            <specular>
              <color sid="specular">0.5 0.5 0.5 1</color>
            </specular>
            <shininess>
              <float sid="shininess">50</float>
            </shininess>
            <index_of_refraction>
              <float sid="index_of_refraction">1</float>
            </index_of_refraction>
          </phong>
        </technique>
        <extra>
          <technique profile="GOOGLEEARTH">
            <double_sided>1</double_sided>
          </technique>
        </extra>
      </profile_COMMON>
      <extra><technique profile="MAX3D"><double_sided>1</double_sided></technique></extra>
    </effect>
  </library_effects>
  <library_materials>
    <material id="box_mat-material" name="box_mat">
      <instance_effect url="#box_mat-effect"/>
    </material>
  </library_materials>
  <library_geometries>
    <geometry id="box-mesh" name="box">
      <mesh>
        <source id="box-mesh-positions">
          <float_array id="box-mesh-positions-array" count="24">0.4999998 0.4999997 -0.5 0.4999998 -0.4999998 -0.5 -0.4999998 -0.4999997 -0.5 -0.4999996 0.5 -0.5 0.5 0.4999995 0.5 0.4999994 -0.5000001 0.5 -0.5 -0.4999996 0.5 -0.4999997 0.4999998 0.5</float_array>
          <technique_common>
            <accessor source="#box-mesh-positions-array" count="8" stride="3">
              <param name="X" type="float"/>
              <param name="Y" type="float"/>
              <param name="Z" type="float"/>
            </accessor>
          </technique_common>
        </source>
        <source id="box-mesh-normals">
          <float_array id="box-mesh-normals-array" count="36">0 0 -1 0 0 1 1 -5.66244e-7 3.27825e-7 -4.76837e-7 -1 0 -1 2.08616e-7 -1.19209e-7 2.08616e-7 1 1.78814e-7 0 0 -1 0 0 1 1 0 -2.38419e-7 0 -1 -2.98023e-7 -1 2.38419e-7 -1.49012e-7 2.68221e-7 1 2.38419e-7</float_array>
          <technique_common>
            <accessor source="#box-mesh-normals-array" count="12" stride="3">
              <param name="X" type="float"/>
              <param name="Y" type="float"/>
              <param name="Z" type="float"/>
            </accessor>
          </technique_common>
        </source>
        <vertices id="box-mesh-vertices">
          <input semantic="POSITION" source="#box-mesh-positions"/>
        </vertices>
        <polylist material="box_mat-material" count="12">
          <input semantic="VERTEX" source="#box-mesh-vertices" offset="0"/>
          <input semantic="NORMAL" source="#box-mesh-normals" offset="1"/>
          <vcount>3 3 3 3 3 3 3 3 3 3 3 3 </vcount>
          <p>0 0 1 0 2 0 7 1 6 1 5 1 4 2 5 2 1 2 5 3 6 3 2 3 2 4 6 4 7 4 0 5 3 5 7 5 3 6 0 6 2 6 4 7 7 7 5 7 0 8 4 8 1 8 1 9 5 9 2 9 3 10 2 10 7 10 4 11 0 11 7 11</p>
        </polylist>
      </mesh>
    </geometry>
  </library_geometries>
  <library_controllers/>
  <library_visual_scenes>
    <visual_scene id="Scene" name="Scene">
      <node id="box" name="box" type="NODE">
        <matrix sid="transform">1 0 0 0 0 1 0 0 0 0 1 0 0 0 0 1</matrix>
        <instance_geometry url="#box-mesh">
          <bind_material>
            <technique_common>
              <instance_material symbol="box_mat-material" target="#box_mat-material"/>
            </technique_common>
          </bind_material>
        </instance_geometry>
      </node>
    </visual_scene>
  </library_visual_scenes>
  <scene>
    <instance_visual_scene url="#Scene"/>
  </scene>
</COLLADA>