<?xml version="1.0" encoding="utf-8"?>
<COLLADA xmlns="http://www.collada.org/2005/11/COLLADASchema" version="1.4.1">
  <asset>
    <contributor>
      <author>Blender User</author>
      <authoring_tool>Blender 2.74.0 commit date:2015-03-31, commit time:13:39, hash:000dfc0</authoring_tool>
    </contributor>
    <created>2018-06-14T21:05:58</created>
    <modified>2018-06-14T21:05:58</modified>
    <unit name="meter" meter="1"/>
    <up_axis>Z_UP</up_axis>
  </asset>
  <library_images/>
  <library_effects>
    <effect id="bullet_mat_002-effect">
      <profile_COMMON>
        <technique sid="common">
          <phong>
            <emission>
              <color sid="emission">0 0 0 1</color>
            </emission>
            <ambient>
              <color sid="ambient">0 0 0 1</color>
            </ambient>
            <diffuse>
              <color sid="diffuse">0.8 0.194711 0.01519261 1</color>
            </diffuse>
            <specular>
              <color sid="specular">0 0 0 1</color>
            </specular>
            <shininess>
              <float sid="shininess">50</float>
            </shininess>
            <index_of_refraction>
              <float sid="index_of_refraction">1</float>
            </index_of_refraction>
          </phong>
        </technique>
      </profile_COMMON>
    </effect>
  </library_effects>
  <library_materials>
    <material id="bullet_mat_002-material" name="bullet_mat_002">
      <instance_effect url="#bullet_mat_002-effect"/>
    </material>
  </library_materials>
  <library_geometries>
    <geometry id="shot_001-mesh" name="shot.001">
      <mesh>
        <source id="shot_001-mesh-positions">
          <float_array id="shot_001-mesh-positions-array" count="24">1.395102 0.4007285 0 -1.395102 0 0 1.395102 -0.3825716 0.446761 1.395101 -0.3825716 -0.4467618 2.595102 0.4007276 -1.44088e-6 2.595102 -0.3825724 0.4467596 2.595101 -0.3825724 -0.4467632 5.395102 -4.79326e-4 -5.42402e-6</float_array>
          <technique_common>
            <accessor source="#shot_001-mesh-positions-array" count="8" stride="3">
              <param name="X" type="float"/>
              <param name="Y" type="float"/>
              <param name="Z" type="float"/>
            </accessor>
          </technique_common>
        </source>
        <source id="shot_001-mesh-normals">
          <float_array id="shot_001-mesh-normals-array" count="36">-0.1358414 -0.9907306 1.89489e-7 -0.07097512 0.4941879 0.8664531 -0.07097524 0.4941886 -0.8664526 1.41214e-6 0.4954373 0.8686437 0.07081329 0.4941936 0.866463 -6.70552e-7 -1 0 -6.81713e-7 0.4954379 -0.8686432 0.1352087 -0.9908172 -1.44311e-7 0.07081097 0.4941942 -0.8664628 1.34615e-6 0.4954375 0.8686437 -6.70552e-7 -1 0 -6.73879e-7 0.495438 -0.8686433</float_array>
          <technique_common>
            <accessor source="#shot_001-mesh-normals-array" count="12" stride="3">
              <param name="X" type="float"/>
              <param name="Y" type="float"/>
              <param name="Z" type="float"/>
            </accessor>
          </technique_common>
        </source>
        <vertices id="shot_001-mesh-vertices">
          <input semantic="POSITION" source="#shot_001-mesh-positions"/>
        </vertices>
        <polylist material="bullet_mat_002-material" count="12">
          <input semantic="VERTEX" source="#shot_001-mesh-vertices" offset="0"/>
          <input semantic="NORMAL" source="#shot_001-mesh-normals" offset="1"/>
          <vcount>3 3 3 3 3 3 3 3 3 3 3 3 </vcount>
          <p>2 0 1 0 3 0 0 1 1 1 2 1 3 2 1 2 0 2 2 3 4 3 0 3 4 4 5 4 7 4 2 5 6 5 5 5 0 6 6 6 3 6 5 7 6 7 7 7 6 8 4 8 7 8 2 9 5 9 4 9 2 10 3 10 6 10 0 11 4 11 6 11</p>
        </polylist>
      </mesh>
    </geometry>
  </library_geometries>
  <library_controllers/>
  <library_visual_scenes>
    <visual_scene id="Scene" name="Scene">
      <node id="shot" name="shot" type="NODE">
        <matrix sid="transform">0.5 0 0 -1 0 0.5 0 0 0 0 0.5 0 0 0 0 1</matrix>
        <instance_geometry url="#shot_001-mesh">
          <bind_material>
            <technique_common>
              <instance_material symbol="bullet_mat_002-material" target="#bullet_mat_002-material"/>
            </technique_common>
          </bind_material>
        </instance_geometry>
      </node>
    </visual_scene>
  </library_visual_scenes>
  <scene>
    <instance_visual_scene url="#Scene"/>
  </scene>
</COLLADA>